EESchema Schematic File Version 2  date 28/03/2013 18:26:24
LIBS:abdullah
LIBS:power
LIBS:device
LIBS:transistors
LIBS:conn
LIBS:linear
LIBS:regul
LIBS:74xx
LIBS:cmos4000
LIBS:adc-dac
LIBS:memory
LIBS:xilinx
LIBS:special
LIBS:microcontrollers
LIBS:dsp
LIBS:microchip
LIBS:analog_switches
LIBS:motorola
LIBS:texas
LIBS:intel
LIBS:audio
LIBS:interface
LIBS:digital-audio
LIBS:philips
LIBS:display
LIBS:cypress
LIBS:siliconi
LIBS:opto
LIBS:atmel
LIBS:contrib
LIBS:valves
LIBS:FanController-cache
EELAYER 25  0
EELAYER END
$Descr A4 11700 8267
encoding utf-8
Sheet 1 1
Title ""
Date "28 mar 2013"
Rev ""
Comp ""
Comment1 ""
Comment2 ""
Comment3 ""
Comment4 ""
$EndDescr
Wire Wire Line
	7300 3900 9150 3900
Wire Wire Line
	9150 3900 9150 3200
Connection ~ 9600 3200
Wire Wire Line
	9150 3200 9600 3200
Wire Wire Line
	9600 3800 9600 3750
Wire Wire Line
	8550 2700 8500 2700
Wire Wire Line
	8500 2700 8500 2500
Wire Wire Line
	7300 3000 7400 3000
Wire Wire Line
	7400 3000 7400 3050
Connection ~ 3250 1100
Wire Wire Line
	3250 1000 3250 1200
Wire Wire Line
	3100 1100 3250 1100
Connection ~ 2050 1100
Wire Wire Line
	2050 1700 2050 1600
Wire Wire Line
	8500 3750 8500 3500
Wire Wire Line
	1650 1250 1750 1250
Wire Wire Line
	1750 1250 1750 1700
Wire Wire Line
	8250 3300 8100 3300
Wire Wire Line
	8500 3100 8500 2800
Wire Wire Line
	8500 2800 8550 2800
Wire Wire Line
	2300 1100 1650 1100
Wire Wire Line
	2700 1700 2700 1400
Wire Wire Line
	3250 1700 3250 1600
Wire Wire Line
	3900 2750 3900 3000
Wire Wire Line
	3900 3000 4000 3000
Wire Wire Line
	2050 1200 2050 1000
Wire Wire Line
	9600 2550 9600 2650
Wire Wire Line
	9600 3150 9600 3250
Wire Wire Line
	7600 3300 7300 3300
$Comp
L GND #PWR01
U 1 1 51546C15
P 9600 3800
F 0 "#PWR01" H 9600 3800 30  0001 C CNN
F 1 "GND" H 9600 3730 30  0001 C CNN
	1    9600 3800
	1    0    0    -1  
$EndComp
$Comp
L NPN-SIMPLE Q1
U 1 1 51546B33
P 8400 3300
F 0 "Q1" H 8500 3350 50  0000 L CNN
F 1 "ZTX851" H 8500 3250 50  0000 L CNN
	1    8400 3300
	1    0    0    -1  
$EndComp
$Comp
L VCC #PWR02
U 1 1 51546AFC
P 9600 2550
F 0 "#PWR02" H 9600 2650 30  0001 C CNN
F 1 "VCC" H 9600 2675 50  0000 C CNN
	1    9600 2550
	1    0    0    -1  
$EndComp
$Comp
L THERMISTOR TH1
U 1 1 51546AD4
P 9600 2900
F 0 "TH1" H 9700 2950 50  0000 L CNN
F 1 "10k" H 9700 2850 50  0000 L CNN
	1    9600 2900
	-1   0    0    -1  
$EndComp
$Comp
L R-VERT R1
U 1 1 51546AC0
P 9600 3500
F 0 "R1" H 9680 3550 50  0000 L CNN
F 1 "10k" H 9680 3450 50  0000 L CNN
F 4 "W" H 9680 3350 40  0001 L CNN "Wattage"
	1    9600 3500
	-1   0    0    -1  
$EndComp
$Comp
L +24V #PWR03
U 1 1 51546A91
P 8500 2500
F 0 "#PWR03" H 8500 2450 20  0001 C CNN
F 1 "+24V" H 8500 2600 30  0000 C CNN
	1    8500 2500
	1    0    0    -1  
$EndComp
$Comp
L +24V #PWR04
U 1 1 51546A8D
P 2050 1000
F 0 "#PWR04" H 2050 950 20  0001 C CNN
F 1 "+24V" H 2050 1100 30  0000 C CNN
	1    2050 1000
	1    0    0    -1  
$EndComp
$Comp
L GND #PWR05
U 1 1 51546A7D
P 7400 3050
F 0 "#PWR05" H 7400 3050 30  0001 C CNN
F 1 "GND" H 7400 2980 30  0001 C CNN
	1    7400 3050
	1    0    0    -1  
$EndComp
$Comp
L VCC #PWR06
U 1 1 51546A5B
P 3900 2750
F 0 "#PWR06" H 3900 2850 30  0001 C CNN
F 1 "VCC" H 3900 2875 50  0000 C CNN
	1    3900 2750
	1    0    0    -1  
$EndComp
$Comp
L VCC #PWR07
U 1 1 51546A58
P 3250 1000
F 0 "#PWR07" H 3250 1100 30  0001 C CNN
F 1 "VCC" H 3250 1125 50  0000 C CNN
	1    3250 1000
	1    0    0    -1  
$EndComp
$Comp
L GND #PWR08
U 1 1 51546A46
P 3250 1700
F 0 "#PWR08" H 3250 1700 30  0001 C CNN
F 1 "GND" H 3250 1630 30  0001 C CNN
	1    3250 1700
	1    0    0    -1  
$EndComp
$Comp
L C-VERT C2
U 1 1 51546A43
P 3250 1400
F 0 "C2" H 3400 1450 50  0000 L CNN
F 1 "1uF" H 3400 1350 50  0000 L CNN
F 4 "V" H 3400 1250 40  0001 L CNN "Voltage"
	1    3250 1400
	1    0    0    -1  
$EndComp
$Comp
L GND #PWR09
U 1 1 51546A38
P 2700 1700
F 0 "#PWR09" H 2700 1700 30  0001 C CNN
F 1 "GND" H 2700 1630 30  0001 C CNN
	1    2700 1700
	1    0    0    -1  
$EndComp
$Comp
L LM7805 U1
U 1 1 51546A20
P 2700 1150
F 0 "U1" H 2850 900 60  0000 C CNN
F 1 "LM7805" H 2700 1350 60  0000 C CNN
	1    2700 1150
	1    0    0    -1  
$EndComp
$Comp
L PIC12F675 U2
U 1 1 51546A04
P 5600 3450
F 0 "U2" H 4350 2800 60  0000 C CNN
F 1 "PIC12F675" H 4550 4100 60  0000 C CNN
	1    5600 3450
	1    0    0    -1  
$EndComp
$Comp
L GND #PWR010
U 1 1 51517707
P 2050 1700
F 0 "#PWR010" H 2050 1700 30  0001 C CNN
F 1 "GND" H 2050 1630 30  0001 C CNN
	1    2050 1700
	1    0    0    -1  
$EndComp
$Comp
L C-VERT C1
U 1 1 515176F6
P 2050 1400
F 0 "C1" H 2200 1450 50  0000 L CNN
F 1 "10uF" H 2200 1350 50  0000 L CNN
F 4 "50V" H 2200 1250 40  0000 L CNN "Voltage"
	1    2050 1400
	1    0    0    -1  
$EndComp
$Comp
L GND #PWR011
U 1 1 515176E0
P 8500 3750
F 0 "#PWR011" H 8500 3750 30  0001 C CNN
F 1 "GND" H 8500 3680 30  0001 C CNN
	1    8500 3750
	1    0    0    -1  
$EndComp
$Comp
L CONNECTOR-2-SMALL P2
U 1 1 515176BB
P 8750 2700
F 0 "P2" H 8600 2700 60  0000 C CNN
F 1 "Fan" H 8600 2600 40  0000 C CNN
	1    8750 2700
	-1   0    0    -1  
$EndComp
$Comp
L R-HRZ R3
U 1 1 515176A9
P 7850 3300
F 0 "R3" H 7860 3400 50  0000 C CNN
F 1 "1k" H 7855 3200 50  0000 C CNN
F 4 "W" H 7860 3300 40  0001 C CNN "Wattage"
	1    7850 3300
	1    0    0    -1  
$EndComp
$Comp
L GND #PWR012
U 1 1 515173F0
P 1750 1700
F 0 "#PWR012" H 1750 1700 30  0001 C CNN
F 1 "GND" H 1750 1630 30  0001 C CNN
	1    1750 1700
	1    0    0    -1  
$EndComp
$Comp
L CONNECTOR-2 P1
U 1 1 51517233
P 1450 1100
F 0 "P1" H 1400 1250 60  0000 C CNN
F 1 "PowerIn" H 1450 800 50  0000 C CNN
	1    1450 1100
	1    0    0    -1  
$EndComp
$EndSCHEMATC
